sim/dump.vcd
$date
	Fri Jul 31 22:02:27 2015
$end

$version
	Synopsys VCS version I-2014.03_Full64
$end

$timescale
	1ns
$end

$comment Csum: 1 2b1739d9bc3877c4 $end


$scope module fifo_tb $end
$var reg 1 ! rd_clk $end
$var reg 1 " wr_clk $end
$var reg 1 # rst_n $end

$scope begin unnamed$$_5 $end
$upscope $end


$scope begin unnamed$$_6 $end
$upscope $end


$scope begin unnamed$$_7 $end
$upscope $end


$scope begin unnamed$$_9 $end

$scope begin unnamed$$_8 $end
$upscope $end

$upscope $end


$scope begin unnamed$$_10 $end
$upscope $end


$scope module read_if $end
$var wire 1 $ clk $end
$var wire 1 % rst_n $end
$var reg 8 & data_out [7:0] $end
$var reg 1 ' rd_en $end
$var reg 1 ( empty $end
$upscope $end


$scope module write_if $end
$var wire 1 ) clk $end
$var wire 1 * rst_n $end
$var reg 8 + data_in [7:0] $end
$var reg 1 , wr_en $end
$var reg 1 - full $end
$upscope $end


$scope module a_fifo $end
$var wire 1 . rst_n $end
$var wire 8 / data_in [7:0] $end
$var reg 8 0 data_out [7:0] $end
$var wire 1 1 rd_en $end
$var wire 1 2 wr_en $end
$var wire 1 3 clk_rd $end
$var wire 1 4 clk_wr $end
$var reg 1 5 full $end
$var reg 1 6 empty $end
$var reg 4 7 rd_ptr [3:0] $end
$var reg 4 8 wr_ptr [3:0] $end
$var reg 4 9 sync_rd_ptr [3:0] $end
$var reg 4 : sync_wr_ptr [3:0] $end
$var reg 4 ; wr_ptr_reg [3:0] $end
$var reg 1 < wr_en_reg $end
$var reg 8 = data_in_reg [7:0] $end
$var reg 8 > data_out_reg [7:0] $end
$var reg 4 ? old_wr_ptr [3:0] $end
$var reg 4 @ old_rd_ptr [3:0] $end

$scope module rd2wr $end
$var wire 1 4 clk $end
$var wire 4 7 data_in [3:0] $end
$var wire 4 A data_out [3:0] $end
$var reg 4 B gray_0 [3:0] $end
$var reg 4 C gray_1 [3:0] $end
$var reg 4 D gray_2 [3:0] $end

$scope module m_bin2gray $end
$var wire 4 7 bin_i [3:0] $end
$var wire 4 E gray_o [3:0] $end
$upscope $end


$scope module m_gray2bin $end
$var wire 4 D gray_i [3:0] $end
$var wire 4 A bin_o [3:0] $end
$upscope $end

$upscope $end


$scope module wr2rd $end
$var wire 1 3 clk $end
$var wire 4 8 data_in [3:0] $end
$var wire 4 F data_out [3:0] $end
$var reg 4 G gray_0 [3:0] $end
$var reg 4 H gray_1 [3:0] $end
$var reg 4 I gray_2 [3:0] $end

$scope module m_bin2gray $end
$var wire 4 8 bin_i [3:0] $end
$var wire 4 J gray_o [3:0] $end
$upscope $end


$scope module m_gray2bin $end
$var wire 4 I gray_i [3:0] $end
$var wire 4 F bin_o [3:0] $end
$upscope $end

$upscope $end


$scope module RAM $end
$var wire 4 ? addr_0 [3:0] $end
$var wire 1 K we_0 $end
$var wire 1 < oe_0 $end
$var wire 1 4 clk_0 $end
$var wire 4 7 addr_1 [3:0] $end
$var wire 1 L we_1 $end
$var wire 1 M oe_1 $end
$var wire 8 = data_0 [7:0] $end
$var wire 8 N data_1 [7:0] $end

$scope begin MEM_WRITE $end
$upscope $end

$upscope $end

$upscope $end


$scope module fifo_cov $end
$upscope $end

$upscope $end

$enddefinitions $end

#0
$dumpvars
0!
0#
0"
1(
x'
b00000000 &
0-
x,
bxxxxxxxx +
16
05
0<
bxxxxxxxx N
b00000000 =
b00000000 0
bxxxxxxxx >
b0000 B
bxxxx C
bxxxx D
b0000 E
b0000 @
b0000 ?
bxxxx A
b0000 7
bxxxx 9
bxxxx :
bxxxx F
b0000 G
bxxxx H
bxxxx I
b0000 J
b0000 8
b0000 ;
1M
0L
1K
0$
0%
0)
0*
bxxxxxxxx /
x1
x2
03
04
0.
$end
#5
1#
1.
1*
1%
#10
1!
13
1$
b0000 H
#11
1"
14
1)
bxxxxxxxx =
x<
b0000 C
#20
0!
03
0$
#22
0"
04
0)
#30
1!
13
1$
b0000 I
b0xxx F
b0xxx :
b00xx F
b00xx :
b000x F
b000x :
b0000 F
b0000 :
1'
11
#33
1"
14
1)
b0000 D
b0xxx A
b0xxx 9
b00xx A
b00xx 9
b000x A
b000x 9
b0000 A
b0000 9
1,
12
b00100000 +
b00100000 /
#40
0!
03
0$
#44
0"
04
0)
#50
1!
13
1$
#55
1"
14
1)
b00100000 =
1<
b0001 8
b0001 G
b0001 J
0,
02
b11001010 +
b11001010 /
#60
0!
03
0$
#66
0"
04
0)
#70
1!
13
1$
b0001 H
#77
1"
14
1)
b0001 ?
b11001010 =
0<
b00100000 N
b00100000 >
b00011100 +
b00011100 /
#80
0!
03
0$
#88
0"
04
0)
#90
1!
13
1$
b0001 I
b0001 F
b0001 :
0'
01
#99
1"
14
1)
b00011100 =
1,
12
b01010101 +
b01010101 /
#100
0!
03
0$
#110
0"
04
1!
13
0)
1$
1'
11
#120
0!
03
0$
#121
1"
14
1)
b01010101 =
1<
b0001 ;
b0010 8
b0011 G
b0011 J
0,
02
b10001100 +
b10001100 /
#130
1!
13
1$
b0011 H
0'
01
#132
0"
04
0)
#140
0!
03
0$
#143
1"
14
1)
b0010 ?
b10001100 =
0<
b01111101 +
b01111101 /
#150
1!
13
1$
b0011 I
b0011 F
b0011 :
b0010 F
b0010 :
1'
11
#154
0"
04
0)
#160
0!
03
0$
#165
1"
14
1)
b01111101 =
b01011101 +
b01011101 /
#170
1!
13
1$
0'
01
#176
0"
04
0)
#180
0!
03
0$
#187
1"
14
1)
b01011101 =
b11111010 +
b11111010 /
#190
1!
13
1$
#198
0"
04
0)
#200
0!
03
0$
#209
1"
14
1)
b11111010 =
1,
12
b01111010 +
b01111010 /
#210
1!
13
1$
1'
11
#220
0"
04
0!
03
0)
0$
#230
1!
13
1$
#231
1"
14
1)
b01111010 =
1<
b0010 ;
b0011 8
b0010 G
b0010 J
b00010111 +
b00010111 /
#240
0!
03
0$
#242
0"
04
0)
#250
1!
13
1$
b0010 H
#253
1"
14
1)
b0011 ?
b00010111 =
b0011 ;
b0100 8
b0110 G
b0110 J
0,
02
b10011011 +
b10011011 /
#260
0!
03
0$
#264
0"
04
0)
#270
1!
13
1$
b0110 H
b0010 I
b0011 F
b0011 :
0'
01
#275
1"
14
1)
b0100 ?
b10011011 =
0<
1,
12
b11000111 +
b11000111 /
#280
0!
03
0$
#286
0"
04
0)
#290
1!
13
1$
06
0(
b0110 I
b0111 F
b0111 :
b0101 F
b0101 :
b0100 F
b0100 :
#297
1"
14
1)
b11000111 =
1<
b0100 ;
b0101 8
b0111 G
b0111 J
0,
02
b10100110 +
b10100110 /
#300
0!
03
0$
#308
0"
04
0)
#310
1!
13
1$
b0111 H
#319
1"
14
1)
b0101 ?
b10100110 =
0<
b10110000 +
b10110000 /
#320
0!
03
0$
#330
0"
04
1!
13
0)
1$
b0111 I
b0101 F
b0101 :
#340
0!
03
0$
#341
1"
14
1)
b10110000 =
1,
12
b00010010 +
b00010010 /
#350
1!
13
1$
#352
0"
04
0)
#360
0!
03
0$
#363
1"
14
1)
b00010010 =
1<
b0101 ;
b0110 8
b0101 G
b0101 J
b11101101 +
b11101101 /
#370
1!
13
1$
b0101 H
#374
0"
04
0)
#380
0!
03
0$
#385
1"
14
1)
b0110 ?
b11101101 =
b0110 ;
b0111 8
b0100 G
b0100 J
b11011111 +
b11011111 /
#390
1!
13
1$
b0100 H
b0101 I
b0111 F
b0111 :
b0110 F
b0110 :
#396
0"
04
0)
#400
0!
03
0$
#407
1"
14
1)
b0111 ?
b11011111 =
b0111 ;
b1000 8
b1100 G
b1100 J
b11101111 +
b11101111 /
#410
1!
13
1$
b1100 H
b0100 I
b0111 F
b0111 :
#418
0"
04
0)
#420
0!
03
0$
#429
1"
14
1)
b1000 ?
b11101111 =
b1000 ;
b1001 8
b1101 G
b1101 J
b00010100 +
b00010100 /
#430
1!
13
1$
b1101 H
b1100 I
b1111 F
b1111 :
b1011 F
b1011 :
b1001 F
b1001 :
b1000 F
b1000 :
1'
11
#440
0"
04
0!
03
0)
0$
#450
1!
13
1$
b00100000 0
b00100000 &
b0001 7
b1101 I
b01010101 N
b01010101 >
b1001 F
b1001 :
b0001 B
b0001 E
0'
01
#451
1"
14
1)
b1001 ?
b00010100 =
b1001 ;
b1010 8
b0001 C
b1111 G
b1111 J
b00101101 +
b00101101 /
#460
0!
03
0$
#462
0"
04
0)
#470
1!
13
1$
b0001 @
b1111 H
1'
11
#473
1"
14
1)
b1010 ?
b00101101 =
b1010 ;
b1011 8
b0001 D
b0001 A
b0001 9
b1110 G
b1110 J
b11011011 +
b11011011 /
#480
0!
03
0$
#484
0"
04
0)
#490
1!
13
1$
b01010101 0
b01010101 &
b0010 7
b1110 H
b1111 I
b01111010 N
b01111010 >
b1011 F
b1011 :
b0011 B
b0011 E
b1010 F
b1010 :
#495
1"
14
1)
b1011 ?
b11011011 =
b1011 ;
b1100 8
b0011 C
b1010 G
b1010 J
0,
02
b11110110 +
b11110110 /
#500
0!
03
0$
#506
0"
04
0)
#510
1!
13
1$
b0010 @
b01111010 0
b01111010 &
b0011 7
b1010 H
b1110 I
b00010111 N
b00010111 >
b1011 F
b1011 :
b0010 B
b0010 E
0'
01
#517
1"
14
1)
b1100 ?
b11110110 =
0<
b0010 C
b0011 D
b0011 A
b0011 9
b0010 A
b0010 9
b00100010 +
b00100010 /
#520
0!
03
0$
#528
0"
04
0)
#530
1!
13
1$
b0011 @
b1010 I
b1111 F
b1111 :
b1101 F
b1101 :
b1100 F
b1100 :
#539
1"
14
1)
b00100010 =
b0010 D
b0011 A
b0011 9
b01000110 +
b01000110 /
#540
0!
03
0$
#550
0"
04
1!
13
0)
1$
1'
11
#560
0!
03
0$
#561
1"
14
1)
b01000110 =
1,
12
b11001110 +
b11001110 /
#570
1!
13
1$
b00010111 0
b00010111 &
b0100 7
b11000111 N
b11000111 >
b0110 B
b0110 E
0'
01
#572
0"
04
0)
#580
0!
03
0$
#583
1"
14
1)
b11001110 =
1<
b1100 ;
b1101 8
b0110 C
b1011 G
b1011 J
b01011111 +
b01011111 /
#590
1!
13
1$
b0100 @
b1011 H
1'
11
#594
0"
04
0)
#600
0!
03
0$
#605
1"
14
1)
b1101 ?
b01011111 =
b1101 ;
b1110 8
b0110 D
b0111 A
b0111 9
b1001 G
b1001 J
b0101 A
b0101 9
b0100 A
b0100 9
0,
02
b01101100 +
b01101100 /
#610
1!
13
1$
b11000111 0
b11000111 &
b0101 7
b1001 H
b1011 I
b00010010 N
b00010010 >
b1101 F
b1101 :
b0111 B
b0111 E
0'
01
#616
0"
04
0)
#620
0!
03
0$
#627
1"
14
1)
b1110 ?
b01101100 =
0<
b0111 C
b10000011 +
b10000011 /
#630
1!
13
1$
b0101 @
b1001 I
b1111 F
b1111 :
b1110 F
b1110 :
1'
11
#638
0"
04
0)
#640
0!
03
0$
#649
1"
14
1)
b10000011 =
b0111 D
b0101 A
b0101 9
b11110010 +
b11110010 /
#650
1!
13
1$
b00010010 0
b00010010 &
b0110 7
b11101101 N
b11101101 >
b0101 B
b0101 E
#660
0"
04
0!
03
0)
0$
#670
1!
13
1$
b0110 @
b11101101 0
b11101101 &
b0111 7
b11011111 N
b11011111 >
b0100 B
b0100 E
0'
01
#671
1"
14
1)
b11110010 =
b0100 C
b11100000 +
b11100000 /
#680
0!
03
0$
#682
0"
04
0)
#690
1!
13
1$
b0111 @
1'
11
#693
1"
14
1)
b11100000 =
b0100 D
b0100 A
b0100 9
b0110 A
b0110 9
b0111 A
b0111 9
b11101000 +
b11101000 /
#700
0!
03
0$
#704
0"
04
0)
#710
1!
13
1$
b11011111 0
b11011111 &
b1000 7
b11101111 N
b11101111 >
b1100 B
b1100 E
0'
01
#715
1"
14
1)
b11101000 =
b1100 C
b00100000 +
b00100000 /
#720
0!
03
0$
#726
0"
04
0)
#730
1!
13
1$
b1000 @
1'
11
#737
1"
14
1)
b00100000 =
b1100 D
b1111 A
b1111 9
b1011 A
b1011 9
b1001 A
b1001 9
b1000 A
b1000 9
b01111010 +
b01111010 /
#740
0!
03
0$
#748
0"
04
0)
#750
1!
13
1$
b11101111 0
b11101111 &
b1001 7
b00010100 N
b00010100 >
b1101 B
b1101 E
0'
01
#759
1"
14
1)
b01111010 =
b1101 C
1,
12
b00001001 +
b00001001 /
#760
0!
03
0$
#770
0"
04
1!
13
0)
1$
b1001 @
#780
0!
03
0$
#781
1"
14
1)
b00001001 =
1<
b1110 ;
b1111 8
b1101 D
b1001 A
b1001 9
b1000 G
b1000 J
0,
02
b00000100 +
b00000100 /
#790
1!
13
1$
b1000 H
#792
0"
04
0)
#800
0!
03
0$
#803
1"
14
1)
b1111 ?
b00000100 =
0<
b01110011 +
b01110011 /
#810
1!
13
1$
b1000 I
b1111 F
b1111 :
1'
11
#814
0"
04
0)
#820
0!
03
0$
#825
1"
14
1)
b01110011 =
b11001001 +
b11001001 /
#830
1!
13
1$
b00010100 0
b00010100 &
b1010 7
b00101101 N
b00101101 >
b1111 B
b1111 E
0'
01
#836
0"
04
0)
#840
0!
03
0$
#847
1"
14
1)
b11001001 =
b1111 C
1,
12
b00010010 +
b00010010 /
#850
1!
13
1$
b1010 @
#858
0"
04
0)
#860
0!
03
0$
#869
1"
14
1)
b00010010 =
1<
b1111 ;
b0000 8
b1111 D
b0000 G
b0000 J
b1011 A
b1011 9
b1010 A
b1010 9
0,
02
b11110011 +
b11110011 /
#870
1!
13
1$
b0000 H
#880
0"
04
0!
03
0)
0$
#890
1!
13
1$
b0000 I
b0111 F
b0111 :
b0011 F
b0011 :
b0001 F
b0001 :
b0000 F
b0000 :
#891
1"
14
1)
b0000 ?
b11110011 =
0<
b10111101 +
b10111101 /
#900
0!
03
0$
#902
0"
04
0)
#910
1!
13
1$
#913
1"
14
1)
b10111101 =
b10110000 +
b10110000 /
#920
0!
03
0$
#924
0"
04
0)
#930
1!
13
1$
1'
11
#935
1"
14
1)
b10110000 =
1,
12
b10010000 +
b10010000 /
#940
0!
03
0$
#946
0"
04
0)
#950
1!
13
1$
b00101101 0
b00101101 &
b1011 7
b11011011 N
b11011011 >
b1110 B
b1110 E
0'
01
#957
1"
14
1)
b10010000 =
1<
b0000 ;
b0001 8
b1110 C
b0001 G
b0001 J
b01011010 +
b01011010 /
#960
0!
03
0$
#968
0"
04
0)
#970
1!
13
1$
b1011 @
b0001 H
1'
11
#979
1"
14
1)
b0001 ?
b01011010 =
b0001 ;
b0010 8
b1110 D
b1011 A
b1011 9
b0011 G
b0011 J
0,
02
b00001000 +
b00001000 /
#980
0!
03
0$
#990
0"
04
1!
13
0)
1$
b11011011 0
b11011011 &
b1100 7
b0011 H
b0001 I
b11001110 N
b11001110 >
b0001 F
b0001 :
b1010 B
b1010 E
#1000
0!
03
0$
#1001
1"
14
1)
b0010 ?
b00001000 =
0<
b1010 C
1,
12
b11100000 +
b11100000 /
#1010
1!
13
1$
b1100 @
b11001110 0
b11001110 &
b1101 7
b0011 I
b01011111 N
b01011111 >
b0011 F
b0011 :
b1011 B
b1011 E
b0010 F
b0010 :
0'
01
#1012
0"
04
0)
#1020
0!
03
0$
#1023
1"
14
1)
b11100000 =
1<
b0010 ;
b0011 8
b1011 C
b1010 D
b1111 A
b1111 9
b0010 G
b0010 J
b1101 A
b1101 9
b1100 A
b1100 9
b00100001 +
b00100001 /
#1030
1!
13
1$
b1101 @
b0010 H
#1034
0"
04
0)
#1040
0!
03
0$
#1045
1"
14
1)
b0011 ?
b00100001 =
b0011 ;
b0100 8
b1011 D
b1101 A
b1101 9
b0110 G
b0110 J
b01110011 +
b01110011 /
#1050
1!
13
1$
b0110 H
b0010 I
b0011 F
b0011 :
1'
11
#1056
0"
04
0)
#1060
0!
03
0$
#1067
1"
14
1)
b0100 ?
b01110011 =
b0100 ;
b0101 8
b0111 G
b0111 J
b11101111 +
b11101111 /
#1070
1!
13
1$
b01011111 0
b01011111 &
b1110 7
b0111 H
b0110 I
b00001001 N
b00001001 >
b0111 F
b0111 :
b1001 B
b1001 E
b0101 F
b0101 :
b0100 F
b0100 :
#1078
0"
04
0)
#1080
0!
03
0$
#1089
1"
14
1)
b0101 ?
b11101111 =
b0101 ;
b0110 8
b1001 C
b0101 G
b0101 J
0,
02
b01001100 +
b01001100 /
#1090
1!
13
1$
b1110 @
b00001001 0
b00001001 &
b1111 7
b0101 H
b0111 I
b00010010 N
b00010010 >
b0101 F
b0101 :
b1000 B
b1000 E
0'
01
#1100
0"
04
0!
03
0)
0$
#1110
1!
13
1$
b1111 @
b0101 I
b0111 F
b0111 :
b0110 F
b0110 :
#1111
1"
14
1)
b0110 ?
b01001100 =
0<
b1000 C
b1001 D
b1111 A
b1111 9
b1110 A
b1110 9
b00011011 +
b00011011 /
#1120
0!
03
0$
#1122
0"
04
0)
#1130
1!
13
1$
1'
11
#1133
1"
14
1)
b00011011 =
b1000 D
b1111 A
b1111 9
b10111010 +
b10111010 /
#1140
0!
03
0$
#1144
0"
04
0)
#1150
1!
13
1$
b00010010 0
b00010010 &
b0000 7
b10010000 N
b10010000 >
b0000 B
b0000 E
0'
01
#1155
1"
14
1)
b10111010 =
b0000 C
1,
12
b01010110 +
b01010110 /
#1160
0!
03
0$
#1166
0"
04
0)
#1170
1!
13
1$
b0000 @
1'
11
#1177
1"
14
1)
b01010110 =
1<
b0110 ;
b0111 8
b0000 D
b0111 A
b0111 9
b0011 A
b0011 9
b0100 G
b0100 J
b0001 A
b0001 9
b0000 A
b0000 9
0,
02
b00010010 +
b00010010 /
#1180
0!
03
0$
#1188
0"
04
0)
#1190
1!
13
1$
b10010000 0
b10010000 &
b0001 7
b0100 H
b01011010 N
b01011010 >
b0001 B
b0001 E
0'
01
#1199
1"
14
1)
b0111 ?
b00010010 =
0<
b0001 C
b01101000 +
b01101000 /
#1200
0!
03
0$
#1210
0"
04
1!
13
0)
1$
b0001 @
b0100 I
b0111 F
b0111 :
1'
11
#1220
0!
03
0$
#1221
1"
14
1)
b01101000 =
b0001 D
b0001 A
b0001 9
1,
12
b00110100 +
b00110100 /
#1230
1!
13
1$
b01011010 0
b01011010 &
b0010 7
b11100000 N
b11100000 >
b0011 B
b0011 E
#1232
0"
04
0)
#1240
0!
03
0$
#1243
1"
14
1)
b00110100 =
1<
b0111 ;
b1000 8
b0011 C
b1100 G
b1100 J
0,
02
b00101111 +
b00101111 /
#1250
1!
13
1$
b0010 @
b11100000 0
b11100000 &
b0011 7
b1100 H
b00100001 N
b00100001 >
b0010 B
b0010 E
0'
01
#1254
0"
04
0)
#1260
0!
03
0$
#1265
1"
14
1)
b1000 ?
b00101111 =
0<
b0010 C
b0011 D
b0011 A
b0011 9
b0010 A
b0010 9
1,
12
b11111011 +
b11111011 /
#1270
1!
13
1$
b0011 @
b1100 I
b1111 F
b1111 :
b1011 F
b1011 :
b1001 F
b1001 :
b1000 F
b1000 :
1'
11
#1276
0"
04
0)
#1280
0!
03
0$
#1287
1"
14
1)
b11111011 =
1<
b1000 ;
b1001 8
b0010 D
b0011 A
b0011 9
b1101 G
b1101 J
b10000000 +
b10000000 /
#1290
1!
13
1$
b00100001 0
b00100001 &
b0100 7
b1101 H
b01110011 N
b01110011 >
b0110 B
b0110 E
0'
01
#1298
0"
04
0)
#1300
0!
03
0$
#1309
1"
14
1)
b1001 ?
b10000000 =
b1001 ;
b1010 8
b0110 C
b1111 G
b1111 J
0,
02
b10111001 +
b10111001 /
#1310
1!
13
1$
b0100 @
b1111 H
b1101 I
b1001 F
b1001 :
1'
11
#1320
0"
04
0!
03
0)
0$
#1330
1!
13
1$
b01110011 0
b01110011 &
b0101 7
b1111 I
b11101111 N
b11101111 >
b1011 F
b1011 :
b0111 B
b0111 E
b1010 F
b1010 :
#1331
1"
14
1)
b1010 ?
b10111001 =
0<
b0111 C
b0110 D
b0111 A
b0111 9
b0101 A
b0101 9
b0100 A
b0100 9
b00110000 +
b00110000 /
#1340
0!
03
0$
#1342
0"
04
0)
#1350
1!
13
1$
b0101 @
b11101111 0
b11101111 &
b0110 7
b01010110 N
b01010110 >
b0101 B
b0101 E
#1353
1"
14
1)
b00110000 =
b0101 C
b0111 D
b0101 A
b0101 9
b00100111 +
b00100111 /
#1360
0!
03
0$
#1364
0"
04
0)
#1370
1!
13
1$
b0110 @
b01010110 0
b01010110 &
b0111 7
b00110100 N
b00110100 >
b0100 B
b0100 E
0'
01
#1375
1"
14
1)
b00100111 =
b0100 C
b0101 D
b0111 A
b0111 9
b0110 A
b0110 9
b11111001 +
b11111001 /
#1380
0!
03
0$
#1386
0"
04
0)
#1390
1!
13
1$
b0111 @
1'
11
#1397
1"
14
1)
b11111001 =
b0100 D
b0111 A
b0111 9
1,
12
b01100010 +
b01100010 /
#1400
0!
03
0$
#1408
0"
04
0)
#1410
1!
13
1$
b00110100 0
b00110100 &
b1000 7
b11111011 N
b11111011 >
b1100 B
b1100 E
0'
01
#1419
1"
14
1)
b01100010 =
1<
b1010 ;
b1011 8
b1100 C
b1110 G
b1110 J
0,
02
b00010111 +
b00010111 /
#1420
0!
03
0$
#1430
0"
04
1!
13
0)
1$
b1000 @
16
1(
b1110 H
1'
11
#1440
0!
03
0$
#1441
1"
14
1)
b1011 ?
b00010111 =
0<
b1100 D
b1111 A
b1111 9
b1011 A
b1011 9
b1001 A
b1001 9
b1000 A
b1000 9
1,
12
b11110000 +
b11110000 /
#1450
1!
13
1$
b1110 I
b1011 F
b1011 :
0'
01
#1452
0"
04
0)
#1460
0!
03
0$
#1463
1"
14
1)
b11110000 =
1<
b1011 ;
b1100 8
b1010 G
b1010 J
b11001001 +
b11001001 /
#1470
1!
13
1$
06
0(
b1010 H
1'
11
#1474
0"
04
0)
#1480
0!
03
0$
#1485
1"
14
1)
b1100 ?
b11001001 =
b1100 ;
b1101 8
b1011 G
b1011 J
0,
02
b00001010 +
b00001010 /
#1490
1!
13
1$
b11111011 0
b11111011 &
b1001 7
b1011 H
b1010 I
b10000000 N
b10000000 >
b1111 F
b1111 :
b1101 B
b1101 E
b1101 F
b1101 :
b1100 F
b1100 :
#1496
0"
04
0)
#1500
0!
03
0$
#1507
1"
14
1)
b1101 ?
b00001010 =
0<
b1101 C
b11100101 +
b11100101 /
#1510
1!
13
1$
b1001 @
b10000000 0
b10000000 &
b1010 7
b1011 I
b01100010 N
b01100010 >
b1101 F
b1101 :
b1111 B
b1111 E
0'
01
#1518
0"
04
0)
#1520
0!
03
0$
#1529
1"
14
1)
b11100101 =
b1111 C
b1101 D
b1001 A
b1001 9
1,
12
b00001101 +
b00001101 /
#1530
1!
13
1$
b1010 @
#1540
0"
04
0!
03
0)
0$
#1550
1!
13
1$
1'
11
#1551
1"
14
1)
b00001101 =
1<
b1101 ;
b1110 8
b1111 D
b1001 G
b1001 J
b1011 A
b1011 9
b1010 A
b1010 9
b00101001 +
b00101001 /
#1560
0!
03
0$
#1562
0"
04
0)
#1570
1!
13
1$
b01100010 0
b01100010 &
b1011 7
b1001 H
b11110000 N
b11110000 >
b1110 B
b1110 E
0'
01
#1573
1"
14
1)
b1110 ?
b00101001 =
b1110 ;
b1111 8
b1110 C
b1000 G
b1000 J
0,
02
b01001101 +
b01001101 /
#1580
0!
03
0$
#1584
0"
04
0)
#1590
1!
13
1$
b1011 @
16
1(
b1000 H
b1001 I
b1111 F
b1111 :
b1110 F
b1110 :
#1595
1"
14
1)
b1111 ?
b01001101 =
0<
b1110 D
b1011 A
b1011 9
b11101110 +
b11101110 /
#1600
0!
03
0$
#1606
0"
04
0)
#1610
1!
13
1$
06
0(
b1000 I
b1111 F
b1111 :
1'
11
#1617
1"
14
1)
b11101110 =
1,
12
b10010001 +
b10010001 /
#1620
0!
03
0$
#1628
0"
04
0)
#1630
1!
13
1$
b11110000 0
b11110000 &
b1100 7
b11001001 N
b11001001 >
b1010 B
b1010 E
#1639
1"
14
1)
b10010001 =
1<
b1111 ;
b0000 8
b1010 C
b0000 G
b0000 J
0,
02
b01100010 +
b01100010 /
#1640
0!
03
0$
#1650
0"
04
1!
13
0)
1$
b1100 @
b11001001 0
b11001001 &
b1101 7
b0000 H
b00001101 N
b00001101 >
b1011 B
b1011 E
#1660
0!
03
0$
#1661
1"
14
1)
b0000 ?
b01100010 =
0<
b1011 C
b1010 D
b1111 A
b1111 9
b1101 A
b1101 9
b1100 A
b1100 9
b00101001 +
b00101001 /
#1670
1!
13
1$
b1101 @
b00001101 0
b00001101 &
b1110 7
16
1(
b0000 I
b00101001 N
b00101001 >
b0111 F
b0111 :
b0011 F
b0011 :
b1001 B
b1001 E
b0001 F
b0001 :
b0000 F
b0000 :
0'
01
#1672
0"
04
0)
#1680
0!
03
0$
#1683
1"
14
1)
b00101001 =
b1001 C
b1011 D
b1101 A
b1101 9
1,
12
b00010011 +
b00010011 /
#1690
1!
13
1$
b1110 @
#1694
0"
04
0)
#1700
0!
03
0$
#1705
1"
14
1)
b00010011 =
1<
b0000 ;
b0001 8
b1001 D
b0001 G
b0001 J
b1111 A
b1111 9
b1110 A
b1110 9
0,
02
b10010010 +
b10010010 /
#1710
1!
13
1$
b0001 H
1'
11
#1716
0"
04
0)
#1720
0!
03
0$
#1727
1"
14
1)
b0001 ?
b10010010 =
0<
b00000010 +
b00000010 /
#1730
1!
13
1$
b0001 I
b0001 F
b0001 :
0'
01
#1738
0"
04
0)
#1740
0!
03
0$
#1749
1"
14
1)
b00000010 =
1,
12
b01011000 +
b01011000 /
#1750
1!
13
1$
#1760
0"
04
0!
03
0)
0$
#1770
1!
13
1$
#1771
1"
14
1)
b01011000 =
1<
b0001 ;
b0010 8
b0011 G
b0011 J
0,
02
b10011010 +
b10011010 /
#1780
0!
03
0$
#1782
0"
04
0)
#1790
1!
13
1$
b0011 H
#1793
1"
14
1)
b0010 ?
b10011010 =
0<
b10101001 +
b10101001 /
#1800
0!
03
0$
#1804
0"
04
0)
#1810
1!
13
1$
b0011 I
b0011 F
b0011 :
b0010 F
b0010 :
1'
11
#1815
1"
14
1)
b10101001 =
b11111000 +
b11111000 /
#1820
0!
03
0$
#1826
0"
04
0)
#1830
1!
13
1$
#1837
1"
14
1)
b11111000 =
b00010110 +
b00010110 /
#1840
0!
03
0$
#1848
0"
04
0)
#1850
1!
13
1$
0'
01
#1859
1"
14
1)
b00010110 =
1,
12
b01110101 +
b01110101 /
#1860
0!
03
0$
#1870
0"
04
1!
13
0)
1$
#1880
0!
03
0$
#1881
1"
14
1)
b01110101 =
1<
b0010 ;
b0011 8
b0010 G
b0010 J
0,
02
b10001100 +
b10001100 /
#1890
1!
13
1$
b0010 H
#1892
0"
04
0)
#1900
0!
03
0$
#1903
1"
14
1)
b0011 ?
b10001100 =
0<
b11001001 +
b11001001 /
#1910
1!
13
1$
b0010 I
b0011 F
b0011 :
#1914
0"
04
0)
#1920
0!
03
0$
#1925
1"
14
1)
b11001001 =
1,
12
b10111111 +
b10111111 /
#1930
1!
13
1$
1'
11
#1936
0"
04
0)
#1940
0!
03
0$
#1947
1"
14
1)
b10111111 =
1<
b0011 ;
b0100 8
b0110 G
b0110 J
0,
02
b01010111 +
b01010111 /
#1950
1!
13
1$
b0110 H
#1958
0"
04
0)
#1960
0!
03
0$
#1969
1"
14
1)
b0100 ?
b01010111 =
0<
1,
12
b00111001 +
b00111001 /
#1970
1!
13
1$
b0110 I
b0111 F
b0111 :
b0101 F
b0101 :
b0100 F
b0100 :
0'
01
#1980
0"
04
0!
03
0)
0$
#1990
1!
13
1$
1'
11
#1991
1"
14
1)
b00111001 =
1<
b0100 ;
b0101 8
b0111 G
b0111 J
b01111011 +
b01111011 /
#2000
0!
03
0$
#2002
0"
04
0)
#2010
1!
13
1$
b0111 H
#2013
1"
14
1)
b0101 ?
b01111011 =
b0101 ;
b0110 8
b0101 G
b0101 J
0,
02
b11000011 +
b11000011 /
#2020
0!
03
0$
#2024
0"
04
0)
#2030
1!
13
1$
b0101 H
b0111 I
b0101 F
b0101 :
0'
01
#2035
1"
14
1)
b0110 ?
b11000011 =
0<
1,
12
b10110001 +
b10110001 /
#2040
0!
03
0$
#2046
0"
04
0)
#2050
1!
13
1$
b0101 I
b0111 F
b0111 :
b0110 F
b0110 :
#2057
1"
14
1)
b10110001 =
1<
b0110 ;
b0111 8
b0100 G
b0100 J
0,
02
b10101100 +
b10101100 /
#2060
0!
03
0$
#2068
0"
04
0)
#2070
1!
13
1$
b0100 H
1'
11
#2079
1"
14
1)
b0111 ?
b10101100 =
0<
b01111000 +
b01111000 /
#2080
0!
03
0$
#2090
0"
04
1!
13
0)
1$
b0100 I
b0111 F
b0111 :
#2100
0!
03
0$
#2101
1"
14
1)
b01111000 =
1,
12
b00000011 +
b00000011 /
#2110
1!
13
1$
0'
01
#2112
0"
04
0)
#2120
0!
03
0$
#2123
1"
14
1)
b00000011 =
1<
b0111 ;
b1000 8
b1100 G
b1100 J
b10111010 +
b10111010 /
#2130
1!
13
1$
b1100 H
1'
11
#2134
0"
04
0)
#2140
0!
03
0$
#2145
1"
14
1)
b1000 ?
b10111010 =
b1000 ;
b1001 8
b1101 G
b1101 J
b01110000 +
b01110000 /
#2150
1!
13
1$
b1101 H
b1100 I
b1111 F
b1111 :
b1011 F
b1011 :
b1001 F
b1001 :
b1000 F
b1000 :
#2156
0"
04
0)
#2160
0!
03
0$
#2167
1"
14
1)
b1001 ?
b01110000 =
b1001 ;
b1010 8
b1111 G
b1111 J
0,
02
b10011011 +
b10011011 /
#2170
1!
13
1$
b1111 H
b1101 I
b1001 F
b1001 :
0'
01
#2178
0"
04
0)
#2180
0!
03
0$
#2189
1"
14
1)
b1010 ?
b10011011 =
0<
1,
12
b00110000 +
b00110000 /
#2190
1!
13
1$
b1111 I
b1011 F
b1011 :
b1010 F
b1010 :
#2200
0"
04
0!
03
0)
0$
